{"response":{"status":"ok","userTier":"developer","total":129,"startIndex":1,"pageSize":10,"currentPage":1,"pages":13,"orderBy":"newest","results":[{"id":"sport/live/2017/jun/22/royal-ascot-2017-buildup-to-the-gold-cup-live","type":"liveblog","sectionId":"sport","sectionName":"Sport","webPublicationDate":"2017-06-22T13:33:04Z","webTitle":"Royal Ascot 2017: buildup to the Gold Cup – live!","webUrl":"https://www.theguardian.com/sport/live/2017/jun/22/royal-ascot-2017-buildup-to-the-gold-cup-live","apiUrl":"https://content.guardianapis.com/sport/live/2017/jun/22/royal-ascot-2017-buildup-to-the-gold-cup-live","isHosted":false},{"id":"global-development/2017/jun/22/betrayed-somali-refugees-kenya-dadaab-camp-sent-from-safety-into-war-zone","type":"article","sectionId":"global-development","sectionName":"Global development","webPublicationDate":"2017-06-22T13:26:01Z","webTitle":"'I feel betrayed': the Somali refugees sent from safety into a war zone","webUrl":"https://www.theguardian.com/global-development/2017/jun/22/betrayed-somali-refugees-kenya-dadaab-camp-sent-from-safety-into-war-zone","apiUrl":"https://content.guardianapis.com/global-development/2017/jun/22/betrayed-somali-refugees-kenya-dadaab-camp-sent-from-safety-into-war-zone","isHosted":false},{"id":"politics/blog/live/2017/jun/22/hammond-suggests-brexit-transitional-period-could-last-up-to-four-years-politics-live","type":"liveblog","sectionId":"politics","sectionName":"Politics","webPublicationDate":"2017-06-22T13:23:18Z","webTitle":"Grenfell fire: Combustible cladding found on at least 3 more tower blocks, government reveals  - Politics live","webUrl":"https://www.theguardian.com/politics/blog/live/2017/jun/22/hammond-suggests-brexit-transitional-period-could-last-up-to-four-years-politics-live","apiUrl":"https://content.guardianapis.com/politics/blog/live/2017/jun/22/hammond-suggests-brexit-transitional-period-could-last-up-to-four-years-politics-live","isHosted":false},{"id":"business/2017/jun/22/uk-manufacturing-weak-pound-cbi-brexit-talks","type":"article","sectionId":"business","sectionName":"Business","webPublicationDate":"2017-06-22T13:19:50Z","webTitle":"UK manufacturing soars thanks to weak pound and global recovery","webUrl":"https://www.theguardian.com/business/2017/jun/22/uk-manufacturing-weak-pound-cbi-brexit-talks","apiUrl":"https://content.guardianapis.com/business/2017/jun/22/uk-manufacturing-weak-pound-cbi-brexit-talks","isHosted":false},{"id":"education/2017/jun/22/teenage-boys-wear-skirts-to-school-protest-no-shorts-uniform-policy","type":"article","sectionId":"education","sectionName":"Education","webPublicationDate":"2017-06-22T13:19:01Z","webTitle":"Teenage boys wear skirts to school to protest against 'no shorts' policy","webUrl":"https://www.theguardian.com/education/2017/jun/22/teenage-boys-wear-skirts-to-school-protest-no-shorts-uniform-policy","apiUrl":"https://content.guardianapis.com/education/2017/jun/22/teenage-boys-wear-skirts-to-school-protest-no-shorts-uniform-policy","isHosted":false},{"id":"society/2017/jun/22/uk-first-proton-beam-cancer-therapy-machine-installed-in-manchester","type":"article","sectionId":"society","sectionName":"Society","webPublicationDate":"2017-06-22T13:18:45Z","webTitle":"Manchester gets UK's first high-energy proton beam cancer therapy machine","webUrl":"https://www.theguardian.com/society/2017/jun/22/uk-first-proton-beam-cancer-therapy-machine-installed-in-manchester","apiUrl":"https://content.guardianapis.com/society/2017/jun/22/uk-first-proton-beam-cancer-therapy-machine-installed-in-manchester","isHosted":false},{"id":"business/live/2017/jun/22/markets-nervous-brent-crude-oil-ftse-pound-business-live","type":"liveblog","sectionId":"business","sectionName":"Business","webPublicationDate":"2017-06-22T13:12:26Z","webTitle":"UK factories have best month for orders since 1988 – business live","webUrl":"https://www.theguardian.com/business/live/2017/jun/22/markets-nervous-brent-crude-oil-ftse-pound-business-live","apiUrl":"https://content.guardianapis.com/business/live/2017/jun/22/markets-nervous-brent-crude-oil-ftse-pound-business-live","isHosted":false},{"id":"alstom-partner-zone/2017/jun/22/our-railway-is-carrying-more-people-on-it-than-any-time-in-history","type":"article","sectionId":"alstom-partner-zone","sectionName":"Alstom partner zone","webPublicationDate":"2017-06-22T13:09:04Z","webTitle":"'Our railway is carrying more people on it than any time in history'","webUrl":"https://www.theguardian.com/alstom-partner-zone/2017/jun/22/our-railway-is-carrying-more-people-on-it-than-any-time-in-history","apiUrl":"https://content.guardianapis.com/alstom-partner-zone/2017/jun/22/our-railway-is-carrying-more-people-on-it-than-any-time-in-history","isHosted":false},{"id":"books/2017/jun/22/no-is-not-enough-naomi-klein-donald-trump","type":"article","sectionId":"books","sectionName":"Books","webPublicationDate":"2017-06-22T13:00:00Z","webTitle":"No Is Not Enough by Naomi Klein – Trump the master of disaster\r\n","webUrl":"https://www.theguardian.com/books/2017/jun/22/no-is-not-enough-naomi-klein-donald-trump","apiUrl":"https://content.guardianapis.com/books/2017/jun/22/no-is-not-enough-naomi-klein-donald-trump","isHosted":false},{"id":"politics/2017/jun/22/theresa-may-match-eu-offer-free-movement-britons-europe","type":"article","sectionId":"politics","sectionName":"Politics","webPublicationDate":"2017-06-22T12:48:46Z","webTitle":"May urged to match EU's offer on rights of Britons living in Europe","webUrl":"https://www.theguardian.com/politics/2017/jun/22/theresa-may-match-eu-offer-free-movement-britons-europe","apiUrl":"https://content.guardianapis.com/politics/2017/jun/22/theresa-may-match-eu-offer-free-movement-britons-europe","isHosted":false}]}}
